{
  "day": [
    "3[01]",
    "[12][0-9]",
    "0?[1-9]"
  ],
  "month": [
    "0?[1-9]",
    "1[012]"
  ],
  "month_name": [
    "jan(uary|\\.?)",
    "feb(bruary|\\.?)",
    "mar(ch|\\.?)",
    "apr(il|\\.?)",
    "may",
    "june",
    "july",
    "aug(ust|\\.?)",
    "sept(ember|\\.?)",
    "oct(ober|\\.?)",
    "nov(ember|\\.?)",
    "dec(ember|\\.?)"
  ],
  "year": [
    "\\d{4}"
  ],
  "date": [
    "{{day}}/{{month}}/{{year}}",
    "{{day}} {{month_name}} {{year}}"
  ],
  "date_range_start_date": [
    "{{date}}",
    "{{day}}/{{month}}",
    "{{day}} {{month_name}}",
    "{{day}}",
    "{{month}}/{{year}}",
    "{{month_name}} {{year}}",
    "{{year}}"
  ],
  "date_range_end_date": [
    "{{date}}",
    "{{month}}/{{year}}",
    "{{month_name}} {{year}}",
    "{{year}}"
  ],
  "date_range": [
    "from {{date_range_start_date}} (to|until) {{date_range_end_date}}"
  ],
  "patterns":[
    "{{date_range}}",
    "{{date}}"
  ]
}