{
  "pm_number": [
    "\\d+"
  ],
  "plenary_meeting": [
    "{{pm_number}}([rs]t|[nr]d|th)? plenary meeting"
  ],
  "city": [
    "Vienna",
    "Copenhagen",
    "Helsinki",
    "Paris",
    "Bonn",
    "Rome",
    "Trieste",
    "Turin",
    "Valletta",
    "The Hague",
    "Maastricht",
    "Oslo",
    "Madrid",
    "Barcellona",
    "Malm[öo]",
    "Berne",
    "Geneva",
    "London",
    "Montreal",
    "Santo Domingo",
    "Kingston",
    "New York( City)?",
    "Washington(,? D\\.?C\\.?)?",
    "Santiago",
    "Ciudad Col[óo]n",
    "Nairobi",
    "Addis Ababa",
    "Arusha",
    "Amman",
    "Beirut",
    "Tokyo",
    "Kuala Lumpur",
    "S[ãa]o L[áa]zaro",
    "Bangkok"
  ],
  "patterns": [
    "{{plenary_meeting}}",
    "{{city}}"
  ]
}